^C:\USERS\WOLFRIKM\DROPBOX\ASIGNMENTS\C++\EJ.DEMO2\EJ.DEMO2\MAIN.CPP
C:\USERS\WOLFRIKM\DROPBOX\ASIGNMENTS\C++\EJ.DEMO2\EJ.DEMO2\DEBUG\VC142.PDB
C:\USERS\WOLFRIKM\DROPBOX\ASIGNMENTS\C++\EJ.DEMO2\EJ.DEMO2\DEBUG\VC142.IDB
C:\USERS\WOLFRIKM\DROPBOX\ASIGNMENTS\C++\EJ.DEMO2\EJ.DEMO2\DEBUG\MAIN.OBJ
